…
```r
ds0 %>% group_by(FOL,PR)    %>% summarize(n = n())
```

```
## # A tibble: 52 x 3
## # Groups:   FOL [?]
##    FOL          PR                              n
##    <fct>        <fct>                       <int>
##  1 English only Newfoundland and Labrador   73794
##  2 English only Prince Edward Island        17539
##  3 English only Nova Scotia                123550
##  4 English only New Brunswick               69961
##  5 English only Quebec                     124818
##  6 English only Ontario                   1486333
##  7 English only Manitoba                   168102
##  8 English only Saskatchewan               147337
##  9 English only Alberta                    429295
## 10 English only British Columbia           531644
## # ... with 42 more rows
```
…
